^C:\USERS\QA PC\DESKTOP\STUDY_PROJECTS\CODEPROJECT\CONSOLEAPPLICATION1\X64\DEBUG\CONSOLEAPPLICATION1.OBJ
C:\USERS\QA PC\DESKTOP\STUDY_PROJECTS\CODEPROJECT\CONSOLEAPPLICATION1\X64\DEBUG\CONSOLEAPPLICATION1.EXE
C:\USERS\QA PC\DESKTOP\STUDY_PROJECTS\CODEPROJECT\CONSOLEAPPLICATION1\X64\DEBUG\CONSOLEAPPLICATION1.ILK
C:\USERS\QA PC\DESKTOP\STUDY_PROJECTS\CODEPROJECT\CONSOLEAPPLICATION1\X64\DEBUG\CONSOLEAPPLICATION1.PDB
